{
	"name": "PrzewodnikStyle",
	"descriptionmsg": "Style of site",
	"version": "1.0.0",
	"author": [
		"Barto"
	],
	"license-name": "cc by-nc-sa 4.0",
	"type": "other",
	"AutoloadNamespaces": {
		"MediaWiki\\Extension\\PrzewodnikStyle\\": "includes/"
	},
	"MessagesDirs": {
		"SiteCustomization": [
			"i18n"
		]
	},
	"HookHandlers": {
		"PrzewodnikSkinAndFooterLinks": {
			"class": "MediaWiki\\Extension\\PrzewodnikStyle\\PrzewodnikSkinAndFooterLinksHooks"
		},
		"PrzewodnikCustomResources": {
			"class": "MediaWiki\\Extension\\PrzewodnikStyle\\PrzewodnikCustomResourcesHooks"
		}
	},
    "Hooks": {
		"SkinAddFooterLinks": "PrzewodnikSkinAndFooterLinks",
		"BeforePageDisplay": "PrzewodnikCustomResources"
	},
	"ResourceModules": {
        "ext.przewodnik": {
            "localBasePath": "modules/ext.przewodnik",
            "remoteExtPath": "PrzewodnikStyle/modules/ext.przewodnik",
            "styles": "ext.przewodnik.css",
            "packageFiles": [
                { "name": "ext.przewodnik.js", "main": true }
            ],
            "messages": [],
            "dependencies": [
                "mediawiki.util",
                "mediawiki.cookie"
            ]
        }
    },
	"manifest_version": 2
}